ApplicationMgr    SUCCESS
====================================================================================================================================
====================================================================================================================================
ApplicationMgr       INFO Application Manager Configured successfully
StatusCodeSvc        INFO initialize
DetectorPersist...   INFO Added successfully Conversion service:XmlCnvSvc
DetectorDataSvc   SUCCESS Detector description database: git:/lhcb.xml
BooleSequencer       INFO Member list: ProcessPhase/Init, ProcessPhase/Digi, ProcessPhase/Link, ProcessPhase/Moni, ProcessPhase/Filter
RndmGenSvc.Engine    INFO Generator engine type:CLHEP::RanluxEngine
RndmGenSvc.Engine    INFO Current Seed:1234567 Luxury:3
RndmGenSvc           INFO Using Random engine:HepRndm::Engine<CLHEP::RanluxEngine>
Init                 INFO Member list: GaudiSequencer/InitBooleSeq, GaudiSequencer/InitDataSeq, GaudiSequencer/InitMuonSeq
InitBooleSeq         INFO Member list: GaudiSequencer/XDSTLoverHandler, BooleInit, GaudiSequencer/SpilloverHandler
XDSTLoverHandler     INFO Member list: TESCheck/XDSTLoader, EventNodeKiller/XDSTKiller
BooleInit         SUCCESS ==================================================================
BooleInit         SUCCESS Requested to process 10 events
BooleInit         SUCCESS ==================================================================
RootHistSvc          INFO Writing ROOT histograms to: reprocess-10ev-histos.root
HistogramPersis...   INFO Added successfully Conversion service:RootHistSvc
HistogramDataSvc     INFO Added stream file:PARAM/ParamFiles/vXrYpZ/data/muonlow-G4.root as LowEnergy
HistogramDataSvc     INFO Added stream file:PARAM/ParamFiles/vXrYpZ/data/muonflat-G4.root as MuonFlatSpillover
SpilloverHandler     INFO Member list: TESCheck/SpilloverLoader, EventNodeKiller/SpilloverKiller
InitDataSeq          INFO Member list:
InitMuonSeq          INFO Member list: MuonBackground/MuonLowEnergy, MuonBackground/MuonFlatSpillover
EventClockSvc.F...   INFO Event times generated from 0 with steps of 0
RFileCnv             INFO opening Root file "PARAM/ParamFiles/vXrYpZ/data/muonlow-G4.root" for reading
MuonLowEnergy        INFO The low energy background is run by default for main events plus (if any) spillover events (max 4)
RFileCnv             INFO opening Root file "PARAM/ParamFiles/vXrYpZ/data/muonflat-G4.root" for reading
Digi                 INFO Member list: GaudiSequencer/DigiVPSeq, GaudiSequencer/DigiUTSeq, GaudiSequencer/DigiFTSeq
DigiVPSeq            INFO Member list: VPEnsureBanks, VPDepositCreator, VPDigitCreator, VPSuperPixelBankEncoder
DigiUTSeq            INFO Member list: MCUTDepositCreator, MCUTDigitCreator, UTDigitCreator, UTClusterCreator, UTClustersToRawBankAlgT<IUTReadoutTool>/createUTRawBuffer, UTClusterKiller
MagneticFieldSvc     INFO Map scaled by factor 1 with polarity internally used: -1 signed relative current: -1
UTClusterCreator     INFO Loading cuts tagged as Data11
ToolSvc.UTKiller     INFO Adding Tool: type: UTRndmEffSelector / name: Selector
DigiFTSeq            INFO Member list: FTMCHitSpillMerger, MCFTDepositCreator, MCFTDigitCreator, FTClusterCreator, FTRawBankEncoder, FTRawBankDecoder
DeFTDetector         INFO Current FT geometry version =   61
MCFTDepositCrea...   INFO Selecting 50/fb attenuation map using power-law radiation damage model without aging fibres and without replaced center module.
Link                 INFO Member list: GaudiSequencer/LinkVPSeq, GaudiSequencer/LinkUTSeq, GaudiSequencer/LinkFTSeq, GaudiSequencer/LinkTrSeq
LinkVPSeq            INFO Member list: VPDigitLinker
LinkUTSeq            INFO Member list: UTDigit2MCHitLinker/UTDigitLinker, UTCluster2MCHitLinker/UTClusterLinker, UTCluster2MCParticleLinker/UTTruthLinker
LinkFTSeq            INFO Member list:
LinkTrSeq            INFO Member list: BuildMCTrackInfo
Moni                 INFO Member list: GaudiSequencer/MoniVPSeq, GaudiSequencer/MoniUTSeq, GaudiSequencer/MoniFTSeq
MoniVPSeq            INFO Member list:
MoniUTSeq            INFO Member list: MCUTDepositMonitor, MCUTDigitMonitor, UTDigitMonitor, UT::UTClusterMonitor/UTClusterMonitor, MCParticle2MCHitAlg/MCP2UTMCHitAlg, UTEffChecker
UTEffChecker.MC...   INFO MCParticle Momentum cut     : 1 GeV/c < P < 1.79769e+305 GeV/c
UTEffChecker.MC...   INFO            Beta * gamma cut : 1 < beta*gamma
UTEffChecker.MC...   INFO            Eta cut          : -1.79769e+308 < P < 1.79769e+308
MoniFTSeq            INFO Member list: MCFTDepositMonitor, FTLiteClusterMonitor
Filter               INFO OR Member list:
PrepareDIGI          INFO Member list: PackMCVertex, PackMCParticle, PackMCParticle, PackMCVertex, DataPacking::Pack<LHCb::MCVPHitPacker>/MCVPHitPacker, DataPacking::Pack<LHCb::MCUTHitPacker>/MCUTHitPacker, DataPacking::Pack<LHCb::MCFTHitPacker>/MCFTHitPacker
FileRecordPersi...   INFO Added successfully Conversion service:FileRecordCnvSvc
FSROutputStream...   INFO Data source: FileRecordDataSvc output: DATAFILE='PFN:reprocess-10ev-Extended.digi' SVC='FileRecordCnvSvc' OPT='REC'
EventPersistenc...   INFO Added successfully Conversion service:RootCnvSvc
DigiWriter           INFO Data source: EventDataSvc output: DATAFILE='PFN:reprocess-10ev-Extended.digi' SVC='RootCnvSvc' OPT='REC'
ApplicationMgr       INFO Application Manager Initialized successfully
ApplicationMgr       INFO Application Manager Started successfully
VPDepositCreator  WARNING VPDepositCreator:: VP deadtime parameters not in conditions DB
BooleInit            INFO Evt 1,  Run 1,  Nr. in job = 1
MuonFlatSpillover    INFO  luminosity factor 5.40302 compared to default 2*10^32 cm-2 s-1
BooleInit            INFO Evt 2,  Run 1,  Nr. in job = 2
BooleInit            INFO Evt 3,  Run 1,  Nr. in job = 3
BooleInit            INFO Evt 4,  Run 1,  Nr. in job = 4
BooleInit            INFO Evt 5,  Run 1,  Nr. in job = 5
BooleInit            INFO Evt 6,  Run 1,  Nr. in job = 6
BooleInit            INFO Evt 7,  Run 1,  Nr. in job = 7
BooleInit            INFO Evt 8,  Run 1,  Nr. in job = 8
BooleInit            INFO Evt 9,  Run 1,  Nr. in job = 9
BooleInit            INFO Evt 10,  Run 1,  Nr. in job = 10
ApplicationMgr       INFO Application Manager Stopped successfully
BooleInit         SUCCESS ==================================================================
BooleInit         SUCCESS 10 events processed
BooleInit         SUCCESS ==================================================================
VPDepositCreator  SUCCESS  #WARNINGS   = 1        Message = 'VP deadtime parameters not in conditions DB'
VPDepositCreator  SUCCESS Exceptions/Errors/Warnings/Infos Statistics : 0/0/1/0
UTClusterKiller      INFO Fraction of clusters killed 0.417349 %
UTEffChecker         INFO  -------Efficiency %---------
UTEffChecker         INFO UTaX eff 99.6047 +/- 0.197238
UTEffChecker         INFO UTaU eff 99.505 +/- 0.220844
UTEffChecker         INFO UTbV eff 99.5127 +/- 0.217409
UTEffChecker         INFO UTbX eff 99.3151 +/- 0.257992
UTEffChecker         INFO  -----------------------
FTLiteClusterMo...   INFO  --------FT Lite clusters------------
FTLiteClusterMo...   INFO Cluster efficiency  = ( 96.8 +/-  0.7 )%
FTLiteClusterMo...   INFO Cluster efficiency p>5GeV = ( 98.1 +/-  0.5 )%
FTLiteClusterMo...   INFO  -------------------------------
FSROutputStream...   INFO Set up File Summary Record
FSROutputStream...   INFO Events output: 1
DigiWriter           INFO Events output: 10
EventLoopMgr         INFO Histograms converted successfully according to request.
ToolSvc              INFO Removing all tools created by ToolSvc
ApplicationMgr       INFO Application Manager Finalized successfully
ApplicationMgr       INFO Application Manager Terminated successfully
UnpackMCVPHits    SUCCESS Number of counters : 1
 |    Counter                                      |     #     |    sum     | mean/eff^* | rms/err^*  |     min     |     max     |
 | "# UnPackedData"                                |        10 |      34585 |     3458.5 |     1128.8 |      1601.0 |      5289.0 |
UnpackMCUTHits    SUCCESS Number of counters : 1
 |    Counter                                      |     #     |    sum     | mean/eff^* | rms/err^*  |     min     |     max     |
 | "# UnPackedData"                                |        10 |      18817 |     1881.7 |     519.85 |      988.00 |      2643.0 |
UnpackMCFTHits    SUCCESS Number of counters : 1
 |    Counter                                      |     #     |    sum     | mean/eff^* | rms/err^*  |     min     |     max     |
 | "# UnPackedData"                                |        10 |      52382 |     5238.2 |     1470.4 |      2380.0 |      7325.0 |
VPDepositCreator  SUCCESS Number of counters : 5
 |    Counter                                      |     #     |    sum     | mean/eff^* | rms/err^*  |     min     |     max     |
 | "1 VPDeposits from Prev/Prev"                   |        10 |          0 |     0.0000 |     0.0000 |      0.0000 |      0.0000 |
 | "2 VPDeposits from Prev"                        |        10 |          0 |     0.0000 |     0.0000 |      0.0000 |      0.0000 |
 | "3 VPDeposits from Main"                        |        10 |      72869 |     7286.9 |     2385.1 |      3388.0 |      10789. |
 | "4 VPDeposits from Next"                        |        10 |          0 |     0.0000 |     0.0000 |      0.0000 |      0.0000 |
 | "5 Deadtime removed VPDeposits"                 |        10 |        307 |     30.700 |     9.0338 |      16.000 |      42.000 |
VPDigitCreator    SUCCESS Number of counters : 5
 |    Counter                                      |     #     |    sum     | mean/eff^* | rms/err^*  |     min     |     max     |
 | "1 Signal VPDigits"                             |        10 |      50353 |     5035.3 |     1658.6 |      2360.0 |      7411.0 |
 | "2 Noise VPDigits"                              |        10 |          0 |     0.0000 |     0.0000 |      0.0000 |      0.0000 |
 | "3 Lost Random bad pixels"                      |        10 |          0 |     0.0000 |     0.0000 |      0.0000 |      0.0000 |
 | "4 Spillover VPDigits"                          |        10 |          0 |     0.0000 |     0.0000 |      0.0000 |      0.0000 |
 | "5 Out of time VPDigits"                        |        10 |      22936 |     2293.6 |     745.38 |      1043.0 |      3435.0 |
UTClusterKiller   SUCCESS Number of counters : 1
 |    Counter                                      |     #     |    sum     | mean/eff^* | rms/err^*  |     min     |     max     |
 |*"fraction of clusters killed"                   |     18929 |         79 |(0.4173490 +- 0.04685735)% |
MCFTDepositCreatorSUCCESS Number of counters : 2
 |    Counter                                      |     #     |    sum     | mean/eff^* | rms/err^*  |     min     |     max     |
 | "NbOfMCHits"                                    |        10 |      52382 |     5238.2 |     1470.4 |      2380.0 |      7325.0 |
 | "NbOfMissedMCHits"                              |         2 |          2 |     1.0000 |     0.0000 |      1.0000 |      1.0000 |
UTClusterMonitor  SUCCESS Number of counters : 1
 |    Counter                                      |     #     |    sum     | mean/eff^* | rms/err^*  |     min     |     max     |
 | "Number of events"                              |        10 |
BooleInit.Boole...SUCCESS Number of counters : 2
 |    Counter                                      |     #     |    sum     | mean/eff^* | rms/err^*  |     min     |     max     |
VPDepositCreator  SUCCESS Booked 6 Histogram(s) : 1D=3 2D=3
MCUTDepositMonitorSUCCESS Booked 4 Histogram(s) : 1D=4
MCUTDigitMonitor  SUCCESS Booked 4 Histogram(s) : 1D=4
UTDigitMonitor    SUCCESS Booked 4 Histogram(s) : 1D=4
UTClusterMonitor  SUCCESS Booked 15 Histogram(s) : 1D=10 2D=4 1DProf=1
UTEffChecker      SUCCESS Booked 24 Histogram(s) : 1D=16 2D=8
MCFTDepositMonitorSUCCESS Booked 29 Histogram(s) : 1D=29
FTLiteClusterMo...SUCCESS Booked 211 Histogram(s) : 1D=188 2D=21 1DProf=1 2DProf=1
BooleInit.Boole...SUCCESS Booked 4 Histogram(s) : 1D=4
